…
    ## # A tibble: 3 × 3
    ##   name           id          data              
    ##   <chr>          <chr>       <list>            
    ## 1 CentralPark_NY USW00094728 <tibble [365 × 4]>
    ## 2 Waikiki_HA     USC00519397 <tibble [365 × 4]>
    ## 3 Waterhole_WA   USS0023B17S <tibble [365 × 4]>

``` r
weather_nest %>% 
  filter(name == "CentralPark_NY") %>% 
  pull(data)
```

    ## [[1]]
    ## # A tibble: 365 × 4
    ##    date        prcp  tmax  tmin
    ##    <date>     <dbl> <dbl> <dbl>
    ##  1 2017-01-01     0   8.9   4.4
    ##  2 2017-01-02    53   5     2.8
    ##  3 2017-01-03   147   6.1   3.9
    ##  4 2017-01-04     0  11.1   1.1
    ##  5 2017-01-05     0   1.1  -2.7
    ##  6 2017-01-06    13   0.6  -3.8
    ##  7 2017-01-07    81  -3.2  -6.6
    ##  8 2017-01-08     0  -3.8  -8.8
    ##  9 2017-01-09     0  -4.9  -9.9
    ## 10 2017-01-10     0   7.8  -6  
    ## # … with 355 more rows
…
    ## # A tibble: 3 × 4
    ##   name           id          data               lm_results
    ##   <chr>          <chr>       <list>             <list>    
    ## 1 CentralPark_NY USW00094728 <tibble [365 × 4]> <lm>      
    ## 2 Waikiki_HA     USC00519397 <tibble [365 × 4]> <lm>      
    ## 3 Waterhole_WA   USS0023B17S <tibble [365 × 4]> <lm>

``` r
unnest(weather_nest,data) # unnest the data
```

    ## # A tibble: 1,095 × 6
    ##    name           id          date        prcp  tmax  tmin
    ##    <chr>          <chr>       <date>     <dbl> <dbl> <dbl>
    ##  1 CentralPark_NY USW00094728 2017-01-01     0   8.9   4.4
    ##  2 CentralPark_NY USW00094728 2017-01-02    53   5     2.8
    ##  3 CentralPark_NY USW00094728 2017-01-03   147   6.1   3.9
    ##  4 CentralPark_NY USW00094728 2017-01-04     0  11.1   1.1
    ##  5 CentralPark_NY USW00094728 2017-01-05     0   1.1  -2.7
    ##  6 CentralPark_NY USW00094728 2017-01-06    13   0.6  -3.8
    ##  7 CentralPark_NY USW00094728 2017-01-07    81  -3.2  -6.6
    ##  8 CentralPark_NY USW00094728 2017-01-08     0  -3.8  -8.8
    ##  9 CentralPark_NY USW00094728 2017-01-09     0  -4.9  -9.9
    ## 10 CentralPark_NY USW00094728 2017-01-10     0   7.8  -6  
    ## # … with 1,085 more rows
…
``` r
nepolean_df = 
  tibble(
    urls = vec_urls
  )
nepolean_df %>% 
  mutate(reviews = map(urls, read_page_reviews)) %>% 
  select(reviews) %>% 
  unnest()
```

    ## Warning: `cols` is now required when using unnest().
    ## Please use `cols = c(reviews)`

    ## # A tibble: 50 × 3
    ##    title                               stars text                               
    ##    <chr>                               <dbl> <chr>                              
    ##  1 "\n\n\n\n\n\n\n\n  \n  \n    Vinta…     5 "\n\n\n\n\n\n\n\n\n\n  \n  \n    \…
    ##  2 "\n\n\n\n\n\n\n\n  \n  \n    too m…     1 "\n\n\n\n\n\n\n\n\n\n  \n  \n    \…
    ##  3 "\n\n\n\n\n\n\n\n  \n  \n    this …     5 "\n\n\n\n\n\n\n\n\n\n  \n  \n    \…
    ##  4 "\n\n\n\n\n\n\n\n  \n  \n    Good …     5 "\n\n\n\n\n\n\n\n\n\n  \n  \n    \…
    ##  5 "\n\n\n\n\n\n\n\n  \n  \n    I Jus…     5 "\n\n\n\n\n\n\n\n\n\n  \n  \n    \…
    ##  6 "\n\n\n\n\n\n\n\n  \n  \n    the c…     5 "\n\n\n\n\n\n\n\n\n\n  \n  \n    \…
    ##  7 "\n\n\n\n\n\n\n\n  \n  \n    Best …     5 "\n\n\n\n\n\n\n\n\n\n  \n  \n    \…
    ##  8 "\n\n\n\n\n\n\n\n  \n  \n    Class…     5 "\n\n\n\n\n\n\n\n\n\n  \n  \n    \…
    ##  9 "\n\n\n\n\n\n\n\n  \n  \n    heheh…     5 "\n\n\n\n\n\n\n\n\n\n  \n  \n    \…
    ## 10 "\n\n\n\n\n\n\n\n  \n  \n    Painf…     1 "\n\n\n\n\n\n\n\n\n\n  \n  \n    \…
    ## # … with 40 more rows
…
